-a="C:\Users\Asus\Unity projects\Jumper\Library\PlayerScriptAssemblies\Assembly-CSharp.dll"
-a="C:\Users\Asus\Unity projects\Jumper\Library\PlayerScriptAssemblies\Unity.RenderPipelines.Universal.Shaders.dll"
-a="C:\Users\Asus\Unity projects\Jumper\Library\PlayerScriptAssemblies\Unity.RenderPipelines.Universal.Runtime.dll"
-a="C:\Users\Asus\Unity projects\Jumper\Library\PlayerScriptAssemblies\UnityEngine.TestRunner.dll"
-a="C:\Users\Asus\Unity projects\Jumper\Library\PlayerScriptAssemblies\Unity.Timeline.dll"
-a="C:\Users\Asus\Unity projects\Jumper\Library\PlayerScriptAssemblies\Unity.TextMeshPro.dll"
-a="C:\Users\Asus\Unity projects\Jumper\Library\PlayerScriptAssemblies\Unity.ProBuilder.Csg.dll"
-a="C:\Users\Asus\Unity projects\Jumper\Library\PlayerScriptAssemblies\Unity.ProBuilder.dll"
-a="C:\Users\Asus\Unity projects\Jumper\Library\PlayerScriptAssemblies\Unity.RenderPipelines.Core.ShaderLibrary.dll"
-a="C:\Users\Asus\Unity projects\Jumper\Library\PlayerScriptAssemblies\UnityEngine.UI.dll"
-a="C:\Users\Asus\Unity projects\Jumper\Library\PlayerScriptAssemblies\Unity.RenderPipelines.Core.Runtime.dll"
-a="C:\Users\Asus\Unity projects\Jumper\Library\PlayerScriptAssemblies\Unity.VisualScripting.Flow.dll"
-a="C:\Users\Asus\Unity projects\Jumper\Library\PlayerScriptAssemblies\Unity.ProBuilder.Poly2Tri.dll"
-a="C:\Users\Asus\Unity projects\Jumper\Library\PlayerScriptAssemblies\Unity.VisualScripting.Core.dll"
-a="C:\Users\Asus\Unity projects\Jumper\Library\PlayerScriptAssemblies\Unity.Mathematics.dll"
-a="C:\Users\Asus\Unity projects\Jumper\Library\PlayerScriptAssemblies\Unity.ProBuilder.KdTree.dll"
-a="C:\Users\Asus\Unity projects\Jumper\Library\PlayerScriptAssemblies\Cinemachine.dll"
-a="C:\Users\Asus\Unity projects\Jumper\Library\PlayerScriptAssemblies\Unity.ProBuilder.Stl.dll"
-a="C:\Users\Asus\Unity projects\Jumper\Library\PlayerScriptAssemblies\Unity.RenderPipeline.Universal.ShaderLibrary.dll"
-a="C:\Users\Asus\Unity projects\Jumper\Library\PlayerScriptAssemblies\Unity.RenderPipelines.ShaderGraph.ShaderGraphLibrary.dll"
-a="C:\Users\Asus\Unity projects\Jumper\Library\PlayerScriptAssemblies\Unity.ProGrids.dll"
-a="C:\Users\Asus\Unity projects\Jumper\Library\PlayerScriptAssemblies\Unity.VisualScripting.State.dll"
-a="C:\Users\Asus\Unity projects\Jumper\Library\PackageCache\com.unity.visualscripting@1.6.1\Runtime\VisualScripting.Flow\Dependencies\NCalc\Unity.VisualScripting.Antlr3.Runtime.dll"
-a="C:\Users\Asus\Unity projects\Jumper\Library\PackageCache\com.unity.cinemachine@2.7.9\Runtime\ThirdParty\clipper_library.dll"
-a="C:\Users\Asus\Unity projects\Jumper\Library\PackageCache\com.unity.ext.nunit@1.0.6\net35\unity-custom\nunit.framework.dll"
-s="C:\Program Files\Unity\Hub\Editor\2021.1.21f1\Editor\Data\Managed\UnityEngine"
-s="C:\Program Files\Unity\Hub\Editor\2021.1.21f1\Editor\Data\PlaybackEngines\WebGLSupport\Managed"
-s="C:\Users\Asus\Unity projects\Jumper\Library\PlayerScriptAssemblies"
-s="C:\Users\Asus\Unity projects\Jumper\Library\PackageCache\com.unity.visualscripting@1.6.1\Runtime\VisualScripting.Flow\Dependencies\NCalc"
-s="C:\Users\Asus\Unity projects\Jumper\Library\PackageCache\com.unity.cinemachine@2.7.9\Runtime\ThirdParty"
-s="C:\Users\Asus\Unity projects\Jumper\Library\PackageCache\com.unity.ext.nunit@1.0.6\net35\unity-custom"
-s="C:\Program Files\Unity\Hub\Editor\2021.1.21f1\Editor\Data\Managed\UnityEngine"
-s="C:\Program Files\Unity\Hub\Editor\2021.1.21f1\Editor\Data\PlaybackEngines\WebGLSupport\Managed"
-s="C:\Program Files\Unity\Hub\Editor\2021.1.21f1\Editor\Data\NetStandard\ref\2.0.0"
-s="C:\Program Files\Unity\Hub\Editor\2021.1.21f1\Editor\Data\NetStandard\compat\2.0.0\shims\netstandard"
-s="C:\Program Files\Unity\Hub\Editor\2021.1.21f1\Editor\Data\NetStandard\Extensions\2.0.0"
-s="C:\Program Files\Unity\Hub\Editor\2021.1.21f1\Editor\Data\NetStandard\compat\2.0.0\shims\netfx"
-o="C:\Users\Asus\Unity projects\Jumper\Library\BuildPlayerData\Player"
-rn="RuntimeInitializeOnLoads.json"
-tn="TypeDb-All.json"
