{
"instructions_readme": "1) Open Chrome, 2) go to chrome://tracing, 3) click Load, 4) navigate to this file.",
"traceEvents":[
{ "cat":"", "pid":1, "tid":0, "ts":0, "ph":"M", "name":"process_name", "args": { "name":"tundra" } }
,{ "pid":1, "tid":0, "ts":1586039281987, "dur":3678, "ph":"X", "name": "DriverCheckDagSignatures",  "args": { "durationMS":4, "detail":"" }}
,{ "pid":1, "tid":0, "ts":1586039285665, "dur":575, "ph":"X", "name": "DriverInitData",  "args": { "durationMS":1, "detail":"" }}
,{ "pid":1, "tid":0, "ts":1586039286363, "dur":10, "ph":"X", "name": "Tundra",  "args": { "durationMS":0, "detail":"RemoveStaleOutputs" }}
,{ "pid":1, "tid":0, "ts":1586039286380, "dur":1, "ph":"X", "name": "Tundra",  "args": { "durationMS":0, "detail":"PrepareNodes" }}
,{ "pid":1, "tid":0, "ts":1586039286381, "dur":522, "ph":"X", "name": "Tundra",  "args": { "durationMS":1, "detail":"BuildQueueInit" }}
,{ "pid":1, "tid":0, "ts":1586039303184, "dur":19173, "ph":"X", "name": "JoinBuildThread",  "args": { "durationMS":19, "detail":"" }}
,{ "pid":1, "tid":0, "ts":1586039322385, "dur":4, "ph":"X", "name": "JoinBuildThread",  "args": { "durationMS":0, "detail":"" }}
,{ "pid":1, "tid":0, "ts":1586039322408, "dur":4, "ph":"X", "name": "JoinBuildThread",  "args": { "durationMS":0, "detail":"" }}
,{ "pid":1, "tid":0, "ts":1586039322425, "dur":4, "ph":"X", "name": "JoinBuildThread",  "args": { "durationMS":0, "detail":"" }}
,{ "pid":1, "tid":0, "ts":1586039322444, "dur":3, "ph":"X", "name": "JoinBuildThread",  "args": { "durationMS":0, "detail":"" }}
,{ "pid":1, "tid":0, "ts":1586039322460, "dur":3, "ph":"X", "name": "JoinBuildThread",  "args": { "durationMS":0, "detail":"" }}
,{ "pid":1, "tid":0, "ts":1586039322479, "dur":5, "ph":"X", "name": "JoinBuildThread",  "args": { "durationMS":0, "detail":"" }}
,{ "pid":1, "tid":0, "ts":1586039322499, "dur":3, "ph":"X", "name": "JoinBuildThread",  "args": { "durationMS":0, "detail":"" }}
,{ "pid":1, "tid":0, "ts":1586039322515, "dur":0, "ph":"X", "name": "SharedResourceDestroy",  "args": { "durationMS":0, "detail":"" }}
,{ "pid":1, "tid":0, "ts":1586039322548, "dur":2943, "ph":"X", "name": "Tundra",  "args": { "durationMS":3, "detail":"Write AllBuiltNodes" }}
,{ "pid":1, "tid":1, "ts":1586039287053, "dur":13, "ph":"X", "name": "CheckInputSignature",  "args": { "durationMS":0, "detail":"WriteResponseFile artifacts/rsp/15698884514240054518.rsp" }}
,{ "pid":1, "tid":1, "ts":1586039287190, "dur":15792, "ph":"X", "name": "CheckInputSignature",  "args": { "durationMS":16, "detail":"Il2Cpp C:/Users/Asus/Unity projects/Jumper/Library/Il2cppBuildCache/WebGL/Native/build.bc" }}
,{ "pid":1, "tid":1, "ts":1586039303156, "dur":1, "ph":"X", "name": "CheckInputSignature",  "args": { "durationMS":0, "detail":"all_tundra_nodes" }}
,{ "pid":1, "tid":1, "ts":1586039303160, "dur":28, "ph":"X", "name": "WaitingForWork", "cname":"thread_state_sleeping",  "args": { "durationMS":0, "detail":"" }}
,{ "pid":1, "tid":1, "ts":1586039303188, "dur":18736, "ph":"X", "name": "Exiting",  "args": { "durationMS":19, "detail":"BuildLoop" }}
,{ "pid":1, "tid":2, "ts":1586039287074, "dur":16112, "ph":"X", "name": "WaitingForWork", "cname":"thread_state_sleeping",  "args": { "durationMS":16, "detail":"" }}
,{ "pid":1, "tid":2, "ts":1586039303187, "dur":18771, "ph":"X", "name": "Exiting",  "args": { "durationMS":19, "detail":"BuildLoop" }}
,{ "pid":1, "tid":3, "ts":1586039287065, "dur":16125, "ph":"X", "name": "WaitingForWork", "cname":"thread_state_sleeping",  "args": { "durationMS":16, "detail":"" }}
,{ "pid":1, "tid":3, "ts":1586039303190, "dur":18733, "ph":"X", "name": "Exiting",  "args": { "durationMS":19, "detail":"BuildLoop" }}
,{ "pid":1, "tid":4, "ts":1586039287106, "dur":16079, "ph":"X", "name": "WaitingForWork", "cname":"thread_state_sleeping",  "args": { "durationMS":16, "detail":"" }}
,{ "pid":1, "tid":4, "ts":1586039303187, "dur":18737, "ph":"X", "name": "Exiting",  "args": { "durationMS":19, "detail":"BuildLoop" }}
,{ "pid":1, "tid":5, "ts":1586039287151, "dur":16032, "ph":"X", "name": "WaitingForWork", "cname":"thread_state_sleeping",  "args": { "durationMS":16, "detail":"" }}
,{ "pid":1, "tid":5, "ts":1586039303183, "dur":18797, "ph":"X", "name": "Exiting",  "args": { "durationMS":19, "detail":"BuildLoop" }}
,{ "pid":1, "tid":6, "ts":1586039287193, "dur":15995, "ph":"X", "name": "WaitingForWork", "cname":"thread_state_sleeping",  "args": { "durationMS":16, "detail":"" }}
,{ "pid":1, "tid":6, "ts":1586039303188, "dur":18739, "ph":"X", "name": "Exiting",  "args": { "durationMS":19, "detail":"BuildLoop" }}
,{ "pid":1, "tid":7, "ts":1586039287234, "dur":15956, "ph":"X", "name": "WaitingForWork", "cname":"thread_state_sleeping",  "args": { "durationMS":16, "detail":"" }}
,{ "pid":1, "tid":7, "ts":1586039303190, "dur":18764, "ph":"X", "name": "Exiting",  "args": { "durationMS":19, "detail":"BuildLoop" }}
,{ "pid":1, "tid":8, "ts":1586039287280, "dur":15904, "ph":"X", "name": "WaitingForWork", "cname":"thread_state_sleeping",  "args": { "durationMS":16, "detail":"" }}
,{ "pid":1, "tid":8, "ts":1586039303184, "dur":18790, "ph":"X", "name": "Exiting",  "args": { "durationMS":19, "detail":"BuildLoop" }}

]
}
